<svg width="30" height="30" viewBox="0 0 30 30" fill="none" xmlns="http://www.w3.org/2000/svg">
<path d="M5.25 7.5C5.84674 7.5 6.41903 7.26295 6.84099 6.84099C7.26295 6.41903 7.5 5.84674 7.5 5.25C7.5 4.65326 7.26295 4.08097 6.84099 3.65901C6.41903 3.23705 5.84674 3 5.25 3C4.65326 3 4.08097 3.23705 3.65901 3.65901C3.23705 4.08097 3 4.65326 3 5.25C3 5.84674 3.23705 6.41903 3.65901 6.84099C4.08097 7.26295 4.65326 7.5 5.25 7.5ZM29.115 14.37C29.655 14.91 30 15.66 30 16.5C30 17.325 29.67 18.075 29.115 18.615L18.615 29.115C18.075 29.655 17.325 30 16.5 30C15.675 30 14.925 29.655 14.37 29.115L0.885 15.615C0.33 15.075 0 14.325 0 13.5V3C0 1.335 1.335 0 3 0H13.5C14.325 0 15.075 0.33 15.615 0.87L29.115 14.37ZM16.5 27L27 16.5L14.25 3.75L3.75 14.25L16.5 27ZM12.135 10.365L14.25 8.25L22.5 16.5L20.385 18.615L12.135 10.365ZM8.385 14.115L10.5 12L16.5 18L14.385 20.115L8.385 14.115Z" fill="#944E77"/>
</svg>
