<svg width="43" height="30" viewBox="0 0 43 30" fill="none" xmlns="http://www.w3.org/2000/svg">
<path d="M31.0714 15C34.0286 15 36.4071 12.6 36.4071 9.64286C36.4071 6.68571 34.0286 4.28571 31.0714 4.28571C28.1143 4.28571 25.7143 6.68571 25.7143 9.64286C25.7143 12.6 28.1143 15 31.0714 15ZM15 12.8571C18.5571 12.8571 21.4071 9.98571 21.4071 6.42857C21.4071 2.87143 18.5571 0 15 0C11.4429 0 8.57143 2.87143 8.57143 6.42857C8.57143 9.98571 11.4429 12.8571 15 12.8571ZM31.0714 19.2857C27.15 19.2857 19.2857 21.2571 19.2857 25.1786V30H42.8571V25.1786C42.8571 21.2571 34.9929 19.2857 31.0714 19.2857ZM15 17.1429C10.0071 17.1429 0 19.65 0 24.6429V30H15V25.1786C15 23.3571 15.7071 20.1643 20.0786 17.7429C18.2143 17.3571 16.4143 17.1429 15 17.1429Z" fill="#944E77"/>
</svg>
