<svg width="29" height="30" viewBox="0 0 29 30" fill="none" xmlns="http://www.w3.org/2000/svg">
<path d="M10.875 0C11.16 0 11.415 0.165 11.535 0.39L14.865 6.33L15 6.75L14.865 7.17L11.535 13.11C11.415 13.335 11.16 13.5 10.875 13.5H4.125C3.84 13.5 3.585 13.335 3.465 13.11L0.135 7.17L0 6.75L0.135 6.33L3.465 0.39C3.585 0.165 3.84 0 4.125 0H10.875ZM10.875 16.5C11.16 16.5 11.415 16.665 11.535 16.89L14.865 22.83L15 23.25L14.865 23.67L11.535 29.61C11.415 29.835 11.16 30 10.875 30H4.125C3.84 30 3.585 29.835 3.465 29.61L0.135 23.67L0 23.25L0.135 22.83L3.465 16.89C3.585 16.665 3.84 16.5 4.125 16.5H10.875ZM24.75 8.25C25.035 8.25 25.29 8.415 25.41 8.64L28.74 14.58L28.875 15L28.74 15.42L25.41 21.36C25.29 21.585 25.035 21.75 24.75 21.75H18C17.715 21.75 17.46 21.585 17.34 21.36L14.01 15.42L13.875 15L14.01 14.58L17.34 8.64C17.46 8.415 17.715 8.25 18 8.25H24.75Z" fill="#944E77"/>
</svg>
