<svg width="28" height="30" viewBox="0 0 28 30" fill="none" xmlns="http://www.w3.org/2000/svg">
<path d="M22.6017 21.2155C21.4566 21.2155 20.4319 21.6675 19.6484 22.3757L8.90507 16.1226C8.98041 15.776 9.04068 15.4294 9.04068 15.0678C9.04068 14.7062 8.98041 14.3596 8.90507 14.0131L19.5279 7.82019C20.3415 8.57358 21.4114 9.04068 22.6017 9.04068C23.8006 9.04068 24.9503 8.56443 25.7981 7.71671C26.6458 6.86898 27.122 5.71921 27.122 4.52034C27.122 3.32147 26.6458 2.17171 25.7981 1.32398C24.9503 0.476249 23.8006 0 22.6017 0C21.4028 0 20.2531 0.476249 19.4053 1.32398C18.5576 2.17171 18.0814 3.32147 18.0814 4.52034C18.0814 4.88197 18.1416 5.22853 18.217 5.57509L7.59417 11.768C6.78051 11.0146 5.7107 10.5475 4.52034 10.5475C3.32147 10.5475 2.17171 11.0237 1.32398 11.8714C0.476249 12.7192 0 13.8689 0 15.0678C0 16.2667 0.476249 17.4164 1.32398 18.2642C2.17171 19.1119 3.32147 19.5881 4.52034 19.5881C5.7107 19.5881 6.78051 19.121 7.59417 18.3677L18.3225 24.6208C18.2471 24.9372 18.2019 25.2687 18.2019 25.6153C18.2019 28.0412 20.1758 30 22.6017 30C25.0276 30 27.0015 28.0412 27.0015 25.6153C27.0015 24.4484 26.538 23.3293 25.7128 22.5041C24.8877 21.679 23.7686 21.2155 22.6017 21.2155Z" fill="#944E77"/>
</svg>
